<?xml version="1.0" encoding="UTF-8"?>
<svg width="48px" height="48px" viewBox="0 0 48 48" version="1.1" xmlns="http://www.w3.org/2000/svg" xmlns:xlink="http://www.w3.org/1999/xlink">
    <!-- Generator: Sketch 51.2 (57519) - http://www.bohemiancoding.com/sketch -->
    <title>Combined Shape</title>
    <desc>Created with Sketch.</desc>
    <defs></defs>
    <g id="Страница-товара" stroke="none" stroke-width="1" fill="none" fill-rule="evenodd">
        <g id="good_popup" transform="translate(-227.000000, -612.000000)" fill="#231F1D" fill-rule="nonzero">
            <g id="file-video-upload" transform="translate(227.000000, 610.000000)">
                <path d="M12,36 L12,20 L26,28 L12,36 Z M4,6 L4,42 L24,42 L24,46 L4,46 C1.794,46 0,44.206 0,42 L0,6 C0,3.796 1.794,2 4,2 L26.828,2 L36,11.172 L36,26.008 L32.002,26.008 L32,14 L24,14 L24,6 L4,6 Z M38,31.17 L47.414,40.584 L44.586,43.412 L40,38.826 L40,50 L36,50 L36,38.826 L31.414,43.412 L28.586,40.584 L38,31.17 Z" id="Combined-Shape"></path>
            </g>
        </g>
    </g>
</svg>