<?xml version="1.0" encoding="UTF-8"?>
<svg width="20px" height="12px" viewBox="0 0 20 12" version="1.1" xmlns="http://www.w3.org/2000/svg" xmlns:xlink="http://www.w3.org/1999/xlink">
    <!-- Generator: Sketch 52.2 (67145) - http://www.bohemiancoding.com/sketch -->
    <title>Shape</title>
    <desc>Created with Sketch.</desc>
    <g id="New_cart" stroke="none" stroke-width="1" fill="none" fill-rule="evenodd">
        <g id="good_opisanie_New" transform="translate(-953.000000, -1503.000000)" fill="#000000" fill-rule="nonzero">
            <g id="Group-13" transform="translate(947.000000, 1493.000000)">
                <g id="VK" transform="translate(6.000000, 10.000000)">
                    <path d="M19.5441881,0.81375 C19.6815617,0.345 19.5441881,0 18.8833094,0 L16.6964692,0 C16.1395489,0 15.8833656,0.29625 15.745992,0.62625 C15.745992,0.62625 14.6321514,3.3675 13.0579235,5.145 C12.5492697,5.65875 12.3153632,5.82375 12.0369031,5.82375 C11.8995294,5.82375 11.6878997,5.65875 11.6878997,5.19 L11.6878997,0.81375 C11.6878997,0.25125 11.531962,0 11.0715746,0 L7.63352027,0 C7.28451691,0 7.07660001,0.2625 7.07660001,0.50625 C7.07660001,1.03875 7.86371397,1.1625 7.94539561,2.6625 L7.94539561,5.9175 C7.94539561,6.63 7.81916035,6.76125 7.54070022,6.76125 C6.79813989,6.76125 4.99371827,4.00875 3.92443138,0.85875 C3.70908888,0.2475 3.49745919,0 2.93682613,0 L0.749985941,0 C0.126235257,0 0,0.29625 0,0.62625 C0,1.21125 0.742560337,4.1175 3.45661837,7.9575 C5.26475279,10.57875 7.81173475,12 10.128523,12 C11.5208236,12 11.6916125,11.685 11.6916125,11.14125 C11.6916125,8.63625 11.5653773,8.4 12.263384,8.4 C12.5863977,8.4 13.143318,8.565 14.4427986,9.82875 C15.9279192,11.32875 16.1729641,12 17.0046317,12 L19.1914719,12 C19.8152226,12 20.1308107,11.685 19.9488835,11.0625 C19.5330497,9.75375 16.7224588,7.06125 16.5962235,6.88125 C16.2732098,6.46125 16.3660298,6.27375 16.5962235,5.89875 C16.5999363,5.895 19.2694408,2.1 19.5441881,0.81375 Z" id="Shape"></path>
                </g>
            </g>
        </g>
    </g>
</svg>