<?xml version="1.0" encoding="UTF-8"?>
<svg width="20px" height="18px" viewBox="0 0 20 18" version="1.1" xmlns="http://www.w3.org/2000/svg" xmlns:xlink="http://www.w3.org/1999/xlink">
    <!-- Generator: Sketch 51.2 (57519) - http://www.bohemiancoding.com/sketch -->
    <title>Shape</title>
    <desc>Created with Sketch.</desc>
    <defs></defs>
    <g id="Symbols" stroke="none" stroke-width="1" fill="none" fill-rule="evenodd" opacity="0.800000012">
        <g id="catalogue/btn/buy-heart-compare" transform="translate(-193.000000, -7.000000)" fill="#323231" fill-rule="nonzero">
            <g id="business-scale-2-copy" transform="translate(193.000000, 6.000000)">
                <path d="M19.9041667,10.465 L19.9125,10.4608333 L17.1816667,5 L18.3333333,5 L18.3333333,3.33333333 L10.8333333,3.33333333 L10.8333333,1.66666667 L9.16666667,1.66666667 L9.16666667,3.33333333 L1.66666667,3.33333333 L1.66666667,5 L2.81833333,5 L0.0883333333,10.4608333 L0.0966666667,10.465 C0.0352665452,10.5782072 0.00210489063,10.7045645 0,10.8333333 C0,13.1308333 1.86916667,15 4.16666667,15 C6.46416667,15 8.33333333,13.1308333 8.33333333,10.8333333 C8.33112855,10.7046824 8.2982754,10.578412 8.2375,10.465 L8.24583333,10.4608333 L5.515,5 L9.16666667,5 L9.16666667,16.6666667 L6.66666667,16.6666667 L6.66666667,18.3333333 L13.3333333,18.3333333 L13.3333333,16.6666667 L10.8333333,16.6666667 L10.8333333,5 L14.485,5 L11.755,10.4608333 L11.7633333,10.465 C11.7019332,10.5782072 11.6687716,10.7045645 11.6666667,10.8333333 C11.6666667,13.1308333 13.5358333,15 15.8333333,15 C18.1308333,15 20,13.1308333 20,10.8333333 C19.9977952,10.7046824 19.9649421,10.578412 19.9041667,10.465 Z M4.16666667,6.03 L6.15166667,10 L2.18166667,10 L4.16666667,6.03 Z M4.16666667,13.3333333 C3.10765694,13.3321859 2.16394292,12.6647785 1.81,11.6666667 L6.52333333,11.6666667 C6.16939042,12.6647785 5.22567639,13.3321859 4.16666667,13.3333333 Z M17.8183333,10 L13.8483333,10 L15.8333333,6.03 L17.8183333,10 Z M15.8333333,13.3333333 C14.7743236,13.3321859 13.8306096,12.6647785 13.4766667,11.6666667 L18.19,11.6666667 C17.8360571,12.6647785 16.8923431,13.3321859 15.8333333,13.3333333 Z" id="Shape"></path>
            </g>
        </g>
    </g>
</svg>