<?xml version="1.0" encoding="UTF-8"?>
<svg width="14px" height="14px" viewBox="0 0 14 14" version="1.1" xmlns="http://www.w3.org/2000/svg" xmlns:xlink="http://www.w3.org/1999/xlink">
    <!-- Generator: Sketch 51.2 (57519) - http://www.bohemiancoding.com/sketch -->
    <title>Group 5</title>
    <desc>Created with Sketch.</desc>
    <defs></defs>
    <g id="Личный-кабинет" stroke="none" stroke-width="1" fill="none" fill-rule="evenodd">
        <g id="ЛК_личные-данные" transform="translate(-598.000000, -428.000000)" fill="#4C8BD0" fill-rule="nonzero">
            <g id="pencil-circle" transform="translate(597.000000, 427.000000)">
                <g id="Group-5" transform="translate(1.000000, 1.000000)">
                    <path d="M7,13.6666667 C3.324,13.6666667 0.333333333,10.6753333 0.333333333,7 C0.333333333,3.32466667 3.324,0.333333333 7,0.333333333 C10.676,0.333333333 13.6666667,3.324 13.6666667,7 C13.6666667,10.676 10.676,13.6666667 7,13.6666667 Z M7,1.66666667 C4.05933333,1.66666667 1.66666667,4.05933333 1.66666667,7 C1.66666667,9.94066667 4.05933333,12.3333333 7,12.3333333 C9.94066667,12.3333333 12.3333333,9.94066667 12.3333333,7 C12.3333333,4.05933333 9.94066667,1.66666667 7,1.66666667 Z" id="Shape"></path>
                    <path d="M4.80466667,7.35666667 L6.69,9.24266667 L4.33333333,9.714 L4.80466667,7.35666667 Z M8.10466667,4.05666667 C8.43943263,3.71005789 8.93517052,3.57104987 9.4013431,3.69307046 C9.86751567,3.81509105 10.2315756,4.17915099 10.3535962,4.64532357 C10.4756168,5.11149614 10.3366088,5.60723404 9.99,5.942 L7.16133333,8.77066667 L5.276,6.88466667 L8.10466667,4.05666667 Z" id="Combined-Shape"></path>
                </g>
            </g>
        </g>
    </g>
</svg>