<?xml version="1.0" encoding="UTF-8"?>
<svg width="48px" height="32px" viewBox="0 0 48 32" version="1.1" xmlns="http://www.w3.org/2000/svg" xmlns:xlink="http://www.w3.org/1999/xlink">
    <!-- Generator: Sketch 51.2 (57519) - http://www.bohemiancoding.com/sketch -->
    <title>Group 3</title>
    <desc>Created with Sketch.</desc>
    <defs>
        <rect id="path-1" x="0" y="0" width="48" height="32" rx="2"></rect>
    </defs>
    <g id="Каталог" stroke="none" stroke-width="1" fill="none" fill-rule="evenodd">
        <g id="catalogue_default" transform="translate(-1163.000000, -3348.000000)">
            <g id="Group-5" transform="translate(0.000000, 3283.000000)">
                <g id="Group-4" transform="translate(1107.000000, 65.000000)">
                    <g id="Group-3" transform="translate(56.000000, 0.000000)">
                        <mask id="mask-2" fill="white">
                            <use xlink:href="#path-1"></use>
                        </mask>
                        <rect stroke="#979797" x="0.5" y="0.5" width="47" height="31" rx="2"></rect>
                        <g id="MasterCard-Logo" mask="url(#mask-2)">
                            <g transform="translate(-1.000000, -1.000000)">
                                <polygon id="path58300" stroke="none" fill="#363567" fill-rule="nonzero" points="49.9340125 33.8844157 49.9340125 0.0564781652 0.112487907 0.0564781652 0.112487907 33.8844157"></polygon>
                                <path d="M25.1672372,26.0540183 C27.2865395,27.9819455 30.0925291,29.1535477 33.1717723,29.1535477 C39.7585211,29.1535477 45.097321,23.7923866 45.097321,17.1780653 C45.097321,10.563742 39.7585211,5.20259577 33.1717723,5.20259577 C30.0925291,5.20259577 27.2865395,6.37417031 25.1672372,8.30212518 C22.7599885,10.4895804 21.2462236,13.6558729 21.2462236,17.1780653 C21.2462236,20.7002556 22.7599885,23.8591092 25.1672372,26.0540183" id="path58344" stroke="none" fill="#E3B837" fill-rule="nonzero"></path>
                                <path d="M43.8420023,23.8294471 L43.8863163,23.8294471 C43.901077,23.8294471 43.9158526,23.8294471 43.9306154,23.8220486 C43.945391,23.8146374 43.9527734,23.7998 43.9527734,23.7849753 C43.9527734,23.7701379 43.945391,23.7553133 43.9306154,23.7478871 C43.9232478,23.7404759 43.901077,23.7404759 43.8863163,23.7404759 L43.8420023,23.7404759 L43.8420023,23.8294471 Z M43.8420023,24.0222398 L43.760795,24.0222398 L43.760795,23.6811517 L43.9084722,23.6811517 C43.9379957,23.6811517 43.9675342,23.6811517 43.9897049,23.6959764 C44.0192433,23.71824 44.0339913,23.7478871 44.0339913,23.7849753 C44.0339913,23.8220486 44.0118481,23.8591092 43.9749294,23.8739466 L44.0413865,24.0222398 L43.9527734,24.0222398 L43.901077,23.888784 L43.8420023,23.888784 L43.8420023,24.0222398 Z M43.8936818,24.1483142 C44.0561494,24.1483142 44.1890637,24.0148435 44.1890637,23.8517107 C44.1890637,23.6885779 44.0561494,23.5551072 43.8936818,23.5551072 C43.7312587,23.5551072 43.5983295,23.6885779 43.5983295,23.8517107 C43.5983295,24.0148435 43.7312587,24.1483142 43.8936818,24.1483142 Z M43.5097164,23.8517107 C43.5097164,23.6366523 43.6795495,23.4661231 43.8936818,23.4661231 C44.1078437,23.4661231 44.2776917,23.6366523 44.2776917,23.8517107 C44.2776917,24.0667393 44.1078437,24.2372983 43.8936818,24.2372983 C43.6795495,24.2372983 43.5097164,24.0667393 43.5097164,23.8517107 Z" id="path58346" stroke="none" fill="#E3B837" fill-rule="nonzero"></path>
                                <path d="M25.1672372,26.0540183 C22.7599885,23.8591092 21.2462236,20.7002556 21.2462236,17.1780653 C21.2462236,13.6558729 22.7599885,10.4895804 25.1672372,8.30212518" id="path58348" stroke="none" fill="#E3B837" fill-rule="nonzero"></path>
                                <path d="M25.1672372,26.0540183 C22.7599885,23.8591092 21.2462236,20.7002556 21.2462236,17.1780653 C21.2462236,13.6558729 22.7599885,10.4895804 25.1672372,8.30212518" id="path58350" stroke="#E3B837" stroke-width="0.531914894" fill="none"></path>
                                <path d="M29.0218339,15.9100657 C28.9775199,15.4799914 28.9036676,15.0573156 28.8150672,14.6420788 L21.5120502,14.6420788 C21.6080458,14.2119917 21.7261845,13.7893309 21.8591137,13.3740791 L28.4680057,13.3740791 C28.3276962,12.9365936 28.1578631,12.5139327 27.965874,12.1060816 L22.3686131,12.1060816 C22.5753798,11.6685939 22.8043025,11.2459331 23.0553556,10.8381096 L27.2791442,10.8381096 C27.0059203,10.393183 26.6957925,9.97052213 26.370887,9.57010993 L23.9636256,9.57010993 C24.3328323,9.117787 24.7315881,8.695124 25.1672372,8.30212518 C23.0479753,6.37417031 20.2419559,5.20259577 17.1627148,5.20259577 C10.5759788,5.20259577 5.23715342,10.563742 5.23715342,17.1780653 C5.23715342,23.7923866 10.5759788,29.1535477 17.1627148,29.1535477 C20.2419559,29.1535477 23.0479753,27.9819455 25.1672372,26.0540183 C25.5955314,25.6610046 26.0016548,25.2383437 26.370887,24.7860186 L23.9636256,24.7860186 C23.631327,24.3855936 23.3359599,23.9629306 23.0553556,23.5180189 L27.2791442,23.5180189 C27.5302122,23.1101955 27.75912,22.6875346 27.965874,22.2500214 L22.3686131,22.2500214 C22.1766219,21.8347846 22.0067888,21.4195349 21.8591137,20.9820345 L28.4680057,20.9820345 C28.6083153,20.5667849 28.7264541,20.144124 28.8150672,19.7140348 C28.9036676,19.2987852 28.9775199,18.8761244 29.0218339,18.4460629 C29.0661203,18.0308005 29.0882911,17.6081247 29.0882911,17.1780653 C29.0882911,16.7479762 29.0661203,16.3253153 29.0218339,15.9100657" id="path58352" stroke="none" fill="#BE002E" fill-rule="nonzero"></path>
                                <path d="M43.8420023,19.9290933 L43.8863163,19.9290933 C43.901077,19.9290933 43.9158526,19.9365045 43.9306154,19.9290933 C43.945391,19.9142559 43.9527734,19.8994312 43.9527734,19.8845938 C43.9527734,19.8697692 43.945391,19.8549318 43.9306154,19.8549318 C43.9232478,19.8401071 43.901077,19.8475056 43.8863163,19.8475056 L43.8420023,19.8475056 L43.8420023,19.9290933 Z M43.8420023,20.1218881 L43.760795,20.1218881 L43.760795,19.7881964 L43.9084722,19.7881964 C43.9379957,19.7881964 43.9675342,19.7881964 43.9897049,19.8030338 C44.0192433,19.8178584 44.0339913,19.8549318 44.0339913,19.8845938 C44.0339913,19.9290933 44.0118481,19.9587553 43.9749294,19.9735651 L44.0413865,20.1218881 L43.9527734,20.1218881 L43.901077,19.9884025 L43.8420023,19.9884025 L43.8420023,20.1218881 Z M43.8936818,20.2479327 C44.0561494,20.2479327 44.1890637,20.114462 44.1890637,19.9587553 C44.1890637,19.7956076 44.0561494,19.6621369 43.8936818,19.6621369 C43.7312587,19.6621369 43.5983295,19.7956076 43.5983295,19.9587553 C43.5983295,20.114462 43.7312587,20.2479327 43.8936818,20.2479327 Z M43.5097164,19.9587553 C43.5097164,19.7437118 43.6795495,19.5657416 43.8936818,19.5657416 C44.1078437,19.5657416 44.2776917,19.7437118 44.2776917,19.9587553 C44.2776917,20.1663599 44.1078437,20.3443301 43.8936818,20.3443301 C43.6795495,20.3443301 43.5097164,20.1663599 43.5097164,19.9587553 Z" id="path58354" stroke="none" fill="#FFFFFF" fill-rule="nonzero"></path>
                                <path d="M21.1132944,20.6335203 C20.7145386,20.7447551 20.4339471,20.7966531 20.1385673,20.7966531 C19.5330702,20.7966531 19.1564704,20.4110783 19.1564704,19.7140348 C19.1564704,19.5731657 19.1712332,19.4248447 19.1933764,19.2691381 L19.274624,18.7871531 L19.333686,18.3941394 L19.8948945,15.0202423 L21.1428328,15.0202423 L20.9951556,15.754359 L21.7704985,15.754359 L21.585875,17.0000951 L20.8031666,17.0000951 L20.4708659,19.0170213 C20.4560903,19.1059925 20.4487227,19.1801519 20.4487227,19.2246514 C20.4487227,19.4767704 20.5816243,19.5879775 20.891767,19.5879775 C21.039442,19.5879775 21.150228,19.5731657 21.2831424,19.5435057 L21.1132944,20.6335203 Z" id="path58356" stroke="none" fill="#000000" fill-rule="nonzero"></path>
                                <path d="M24.3402127,17.6526242 C24.3476079,17.5488155 24.3476079,17.4598293 24.3476079,17.4005201 C24.3476079,17.0000951 24.1260783,16.7628285 23.7347178,16.7628285 C23.3285647,16.7628285 23.0331976,17.0816679 22.915046,17.6452129 L24.3402127,17.6526242 Z M25.1081731,20.5890208 C24.6651161,20.7225064 24.2368368,20.7892418 23.7863973,20.7892418 C22.3981515,20.7892418 21.585875,20.032902 21.585875,18.5795208 C21.585875,16.8814618 22.5384611,15.635698 23.8454613,15.635698 C24.9087889,15.635698 25.588151,16.3327415 25.588151,17.4301822 C25.588151,17.7935211 25.5438498,18.1494466 25.4330786,18.6462562 L22.8559841,18.6462562 C22.8485889,18.727829 22.8485889,18.757491 22.8485889,18.8019905 C22.8485889,19.3729468 23.2325691,19.6695631 23.9783884,19.6695631 C24.4436035,19.6695631 24.8571073,19.5731657 25.3223075,19.3581093 L25.1081731,20.5890208 Z" id="path58358" stroke="none" fill="#000000" fill-rule="nonzero"></path>
                                <polygon id="path58360" stroke="none" fill="#000000" fill-rule="nonzero" points="11.2331701 20.7002556 9.93355022 20.7002556 10.6793696 16.0287118 9.02529298 20.7002556 8.1391662 20.7002556 8.02842264 16.0509626 7.25306489 20.7002556 5.99774621 20.7002556 7.00937939 14.6198429 8.8702227 14.6198429 8.9219043 18.386726 10.177223 14.6198429 12.2226729 14.6198429"></polygon>
                                <path d="M15.3609632,20.7002556 L14.2459541,20.7002556 L14.2680973,20.1886235 C13.987493,20.5667849 13.6035255,20.7818156 12.9093878,20.7818156 C12.2817348,20.7818156 11.7574599,20.2330953 11.7574599,19.4322709 C11.7574599,19.1949765 11.801759,18.9873592 11.8534555,18.7871531 C12.0602201,18.0308005 12.8281678,17.5488155 14.0022537,17.5265796 C14.1499585,17.5265796 14.3788684,17.5265796 14.5708575,17.5488155 C14.6151438,17.3856827 14.6225391,17.3189473 14.6225391,17.2299612 C14.6225391,16.9036977 14.3566976,16.7998741 13.7512006,16.7998741 C13.381996,16.7998741 12.9684773,16.859211 12.6804779,16.9481972 L12.4958692,17.0000951 L12.4220316,17.0149326 L12.59926,15.9100657 C13.2047676,15.724697 13.6330491,15.6431242 14.1056445,15.6431242 C15.2206685,15.6431242 15.8114006,16.1473579 15.8114006,17.0964904 C15.8114006,17.341196 15.8335714,17.5265796 15.7449434,18.0753 L15.4791147,19.8252697 L15.4274204,20.144124 L15.397882,20.3888296 L15.3757388,20.5593736 L15.3609632,20.7002556 Z M14.3419497,18.4979608 C14.2016401,18.4831234 14.179482,18.4757249 14.0834865,18.4757249 C13.3524597,18.4757249 12.9832402,18.757491 12.9832402,19.2246514 C12.9832402,19.5360796 13.1604685,19.7288723 13.4484531,19.7288723 C14.0687109,19.7288723 14.3197916,19.2246514 14.3419497,18.4979608 Z" id="path58362" stroke="none" fill="#000000" fill-rule="nonzero"></path>
                                <path d="M31.3330998,15.7988308 C31.694924,15.7988308 32.0345903,15.8952282 32.4924229,16.1325204 L32.7065572,14.8126228 C32.5884184,14.7681383 32.55888,14.7533136 32.3890342,14.6939767 L31.8573768,14.5605209 C31.694924,14.5160214 31.5029329,14.4937855 31.2814054,14.4937855 C30.6389917,14.4937855 30.262377,14.501184 29.8710016,14.7458875 C29.6642625,14.8719469 29.4058141,15.0573156 29.1030539,15.3910052 L28.9479815,15.3465058 L27.6262057,16.288242 L27.6926629,15.754359 L26.3192054,15.754359 L25.5290742,20.7002556 L26.8287069,20.7002556 L27.3012874,18.0382117 C27.3012874,18.0382117 27.4858982,17.6748728 27.567131,17.5636529 C27.8034213,17.2373873 28.0175684,17.2373873 28.2907774,17.2448007 C28.3203158,17.2448007 28.3646298,17.2448007 28.3794054,17.2448007 C28.3424739,17.5339908 28.3203158,17.8454169 28.3203158,18.1865348 C28.3203158,19.8030338 29.2359683,20.8040792 30.6315965,20.8040792 C30.9860383,20.8040792 31.2961683,20.7595797 31.7687764,20.6335203 L31.9976715,19.2468873 C31.56939,19.4545068 31.2223159,19.5583282 30.897438,19.5583282 C30.1442383,19.5583282 29.6938009,19.0021817 29.6938009,18.0753 C29.6938009,16.7405649 30.365753,15.7988308 31.3330998,15.7988308" id="path58364" stroke="none" fill="#000000" fill-rule="nonzero"></path>
                                <path d="M40.6963295,19.5360796 C40.2606401,19.5360796 40.0317323,19.209814 40.0317323,18.55727 C40.0317323,17.5858888 40.4526312,16.8962715 41.0359978,16.8962715 C41.4864352,16.8962715 41.7227403,17.2373873 41.7227403,17.8676677 C41.7227403,18.8464623 41.3018265,19.5360796 40.6963295,19.5360796 Z M42.2765537,14.6198429 L41.988569,16.3549773 C41.6784264,15.8878298 41.3092217,15.6653601 40.807073,15.6653601 C40.1277257,15.6653601 39.5000749,16.0509626 39.1087122,16.7850644 L39.1087122,16.7776382 L38.2890426,16.288242 L38.3481173,15.754359 L36.9820423,15.754359 L36.1919238,20.7002556 L37.4841613,20.7002556 L37.9124555,18.0382117 C37.9124555,18.0382117 38.2447562,17.6674765 38.3259741,17.5562267 C38.5179653,17.3041227 38.7321123,17.252197 38.9019455,17.2448007 C38.7542683,17.6600503 38.6656552,18.1494466 38.6656552,18.7129916 C38.6656552,19.943903 39.3080837,20.7595797 40.2532597,20.7595797 C40.7258679,20.7595797 41.0950598,20.596447 41.4495016,20.2108594 L41.3830444,20.7002556 L42.6088268,20.7002556 L43.5909492,14.6198429 L42.2765537,14.6198429 Z" id="path58366" stroke="none" fill="#000000" fill-rule="nonzero"></path>
                                <path d="M35.7562599,20.7002556 L34.6412232,20.7002556 L34.663394,20.1886235 C34.382777,20.5667849 33.9987947,20.7818156 33.3046866,20.7818156 C32.684414,20.7818156 32.1084427,20.2405193 32.1158251,19.4248447 C32.1232182,18.2532702 33.0019243,17.5265796 34.3975526,17.5265796 C34.5452276,17.5265796 34.7741524,17.5265796 34.9661414,17.5488155 C35.0104554,17.3856827 35.0178379,17.3189473 35.0178379,17.2299612 C35.0178379,16.9036977 34.7519944,16.7998741 34.1464994,16.7998741 C33.7772799,16.7998741 33.3637613,16.859211 33.0757767,16.9481972 L32.8985484,17.0000951 L32.8173284,17.0149326 L33.0019243,15.9100657 C33.6074341,15.724697 34.0283331,15.6431242 34.5009412,15.6431242 C35.6159525,15.6431242 36.1993042,16.1473579 36.1993042,17.0964904 C36.1993042,17.341196 36.2288426,17.5265796 36.1402422,18.0753 L35.8743987,19.8252697 L35.8301123,20.144124 L35.7931808,20.3888296 L35.7710227,20.5593736 L35.7562599,20.7002556 Z M34.7372188,18.4979608 C34.6043193,18.4831234 34.574766,18.4757249 34.4787704,18.4757249 C33.7477437,18.4757249 33.3785369,18.757491 33.3785369,19.2246514 C33.3785369,19.5360796 33.5557525,19.7288723 33.8437371,19.7288723 C34.4640225,19.7288723 34.7150756,19.2246514 34.7372188,18.4979608 Z" id="path58368" stroke="none" fill="#000000" fill-rule="nonzero"></path>
                                <path d="M18.0636044,16.8147265 C18.3146724,16.8147265 18.6617339,16.8369623 19.0383189,16.8888731 L19.2155472,15.7469329 C18.8389346,15.6950349 18.3589567,15.6505355 18.0636044,15.6505355 C16.6162819,15.6505355 16.1363061,16.4217127 16.1363061,17.3337847 C16.1363061,17.9195784 16.4242907,18.3644901 17.103638,18.6907557 C17.6279299,18.9354613 17.716543,18.9799458 17.716543,19.2023878 C17.716543,19.5138437 17.4507143,19.6843728 16.9411874,19.6843728 C16.5572051,19.6843728 16.1953829,19.6250636 15.7818622,19.4915801 L15.6341871,20.626109 L15.6637255,20.6335203 L15.9000285,20.6854182 C15.9738533,20.7002556 16.0920197,20.715108 16.2396969,20.7299177 C16.5424571,20.7595797 16.808273,20.7744172 16.9707237,20.7744172 C18.4106659,20.7744172 19.0013852,20.2182834 19.0013852,19.1282561 C19.0013852,18.4534613 18.6838771,18.0530491 18.0340533,17.7564478 C17.4876203,17.5043288 17.4285584,17.4672555 17.4285584,17.2373873 C17.4359387,17.0075064 17.6648487,16.8147265 18.0636044,16.8147265" id="path58370" stroke="none" fill="#000000" fill-rule="evenodd"></path>
                                <path d="M33.0536335,14.4270502 L32.8468668,15.7469329 C32.3816666,15.5170647 32.049368,15.4206673 31.6875437,15.4206673 C30.7201969,15.4206673 30.0408496,16.3549773 30.0408496,17.6971236 C30.0408496,18.6165941 30.4986822,19.1727407 31.2518819,19.1727407 C31.56939,19.1727407 31.923834,19.0763432 32.3521154,18.8613146 L32.1232182,20.2479327 C31.6432297,20.3814162 31.3404822,20.425888 30.9786431,20.425888 C29.5830149,20.425888 28.7190737,19.4174462 28.7190737,17.8009472 C28.7190737,15.6282996 29.9153156,14.1155943 31.6284669,14.1155943 C31.8499964,14.1155943 32.049368,14.1378579 32.2118186,14.1749312 L32.743476,14.3083892 C32.9059287,14.3677261 32.9428624,14.3825507 33.0536335,14.4270502" id="path58372" stroke="none" fill="#FFFFFF" fill-rule="nonzero"></path>
                                <path d="M28.8963021,15.331696 C28.8593812,15.3242699 28.8150672,15.3242699 28.7707532,15.3242699 C28.3424739,15.3242699 28.1061815,15.5393006 27.7074257,16.1251092 L27.8181968,15.3761678 L26.6514785,15.3761678 L25.8613728,20.3146809 L27.1536124,20.3146809 C27.6188105,17.2966965 27.7443445,16.770227 28.3646298,16.770227 C28.4015486,16.770227 28.4015486,16.770227 28.4532302,16.7776382 C28.5713965,16.1844184 28.7338493,15.7469329 28.9479815,15.3465058 L28.8963021,15.331696 Z" id="path58374" stroke="none" fill="#FFFFFF" fill-rule="nonzero"></path>
                                <path d="M21.4381999,20.2553589 C21.083756,20.3665788 20.8105321,20.4110783 20.5151798,20.4110783 C19.8505805,20.4110783 19.4887562,20.032902 19.4887562,19.3284473 C19.4887562,19.1875781 19.5035339,19.0392571 19.5256771,18.8835505 L19.6069226,18.4015634 L19.6659846,18.0159758 L20.2271804,14.6420788 L21.5120502,14.6420788 L21.3643603,15.3761678 L22.0289469,15.3761678 L21.8517185,16.5774321 L21.1871468,16.5774321 L20.8474657,18.6388577 C20.8327029,18.727829 20.8253098,18.7945643 20.8253098,18.839051 C20.8253098,19.0985791 20.9582369,19.209814 21.2609716,19.209814 C21.4086742,19.209814 21.526813,19.1949765 21.6154134,19.157916 L21.4381999,20.2553589 Z" id="path58376" stroke="none" fill="#FFFFFF" fill-rule="nonzero"></path>
                                <path d="M16.4686047,16.9333598 C16.4686047,17.5562267 16.771367,17.9863138 17.4507143,18.3125921 C17.9749913,18.55727 18.0562241,18.6314316 18.0562241,18.8538885 C18.0562241,19.1653145 17.8273142,19.3062114 17.3178,19.3062114 C16.9264373,19.3062114 16.5719827,19.2468873 16.1584769,19.1059925 L15.9812485,20.2479327 L16.0329429,20.2627829 L16.2766156,20.3072547 C16.350468,20.3220942 16.4612116,20.3369167 16.6089142,20.3517542 C16.9190442,20.3814162 17.1553472,20.3962259 17.3251676,20.3962259 C18.6912574,20.3962259 19.318938,19.8697692 19.318938,18.7426536 C19.318938,18.0678738 19.0530944,17.6674765 18.4106659,17.3708581 C17.8642329,17.118754 17.8051582,17.0668305 17.8051582,16.8369623 C17.8051582,16.5700337 18.0193053,16.4291368 18.4328091,16.4291368 C18.6912574,16.4291368 19.0383189,16.458786 19.3632244,16.5032855 L19.5478479,15.3613453 C19.2155472,15.3094324 18.706033,15.2649479 18.4106659,15.2649479 C16.9633582,15.2649479 16.4612116,16.0287118 16.4686047,16.9333598" id="path58378" stroke="none" fill="#FFFFFF" fill-rule="nonzero"></path>
                                <path d="M41.0286026,19.150492 C41.6341251,19.150492 42.0550262,18.4682988 42.0550262,17.4894914 C42.0550262,16.859211 41.8187338,16.518108 41.3682837,16.518108 C40.7849298,16.518108 40.3640309,17.2077253 40.3640309,18.1791086 C40.3640309,18.8242264 40.5855583,19.150492 41.0286026,19.150492 Z M42.9411254,20.3146809 L41.7153451,20.3146809 L41.7818023,19.8326959 C41.4199653,20.2108594 41.058141,20.3814162 40.5781652,20.3814162 C39.6403696,20.3814162 39.020097,19.5657416 39.020097,18.327404 C39.020097,16.688667 39.9800507,15.302034 41.1245982,15.302034 C41.6267448,15.302034 42.0107122,15.5096385 42.3651689,15.9768138 L42.6457583,14.2416538 L43.9232478,14.2416538 L42.9411254,20.3146809 Z" id="path58380" stroke="none" fill="#FFFFFF" fill-rule="nonzero"></path>
                                <path d="M24.6725113,17.2670494 C24.6798789,17.1632258 24.6798789,17.0816679 24.6798789,17.0149326 C24.6798789,16.6145054 24.450969,16.3846373 24.0669888,16.3846373 C23.6534702,16.3846373 23.3654834,16.6960782 23.2399643,17.2670494 L24.6725113,17.2670494 Z M25.3961599,20.2108594 C24.9531028,20.3443301 24.5248214,20.4110783 24.0669888,20.4110783 C22.6196789,20.4110783 21.8664941,19.6473144 21.8664941,18.1939333 C21.8664941,16.5032855 22.8264457,15.2501105 24.133446,15.2501105 C25.1967735,15.2501105 25.8761356,15.9471518 25.8761356,17.0445946 C25.8761356,17.4079314 25.8318365,17.7638718 25.7210654,18.2680927 L23.1439687,18.2680927 C23.1365756,18.3422414 23.1291804,18.3793275 23.1291804,18.4237993 C23.1291804,18.9947854 23.5131882,19.2839755 24.2663603,19.2839755 C24.7315881,19.2839755 25.145094,19.1875781 25.6102942,18.9725218 L25.3961599,20.2108594 Z" id="path58382" stroke="none" fill="#FFFFFF" fill-rule="nonzero"></path>
                                <polygon id="path58384" stroke="none" fill="#FFFFFF" fill-rule="nonzero" points="11.5580735 20.3146809 10.2658361 20.3146809 11.0042454 15.6431242 9.35019849 20.3146809 8.4714648 20.3146809 8.36069365 15.6727863 7.57798314 20.3146809 6.36695084 20.3146809 7.37859888 14.2416538 9.23942734 14.2416538 9.29112167 18.0011384 10.553808 14.2416538 12.5623391 14.2416538"></polygon>
                                <path d="M15.6932618,20.3146809 L14.6151438,20.3146809 L14.6447099,19.8030338 C14.3124112,20.2108594 13.8767218,20.4036521 13.2860025,20.4036521 C12.5844823,20.4036521 12.1045065,19.8475056 12.1045065,19.0540946 C12.1045065,17.8454169 12.9389262,17.1484033 14.3714732,17.1484033 C14.5191504,17.1484033 14.711167,17.1632258 14.9031582,17.1854894 C14.9400642,17.0223587 14.9548398,16.9481972 14.9548398,16.8666244 C14.9548398,16.5329476 14.725915,16.4142993 14.1204201,16.4142993 C13.7512006,16.4142993 13.337682,16.4662122 13.0496974,16.5551834 L12.8724818,16.6070793 L12.7543302,16.6367413 L12.9315586,15.5244909 C13.5813675,15.3391094 14.0022537,15.2649479 14.4822444,15.2649479 C15.5898731,15.2649479 16.1806201,15.7617703 16.1806201,16.7109029 C16.1806201,16.9556084 16.1584769,17.1409899 16.0772441,17.6897124 L15.8040329,19.4471083 L15.759719,19.7585343 L15.7301827,20.0106533 L15.7080395,20.1811973 L15.6932618,20.3146809 Z M14.7480731,18.1123733 C14.6151438,18.0975358 14.5560819,18.0975358 14.4600863,18.0975358 C13.7290447,18.0975358 13.3524597,18.3496676 13.3524597,18.8464623 C13.3524597,19.150492 13.5370535,19.3507109 13.8176578,19.3507109 C14.34933,19.3507109 14.725915,18.8464623 14.7480731,18.1123733 Z" id="path58386" stroke="none" fill="#FFFFFF" fill-rule="nonzero"></path>
                                <path d="M36.0885606,20.3146809 L35.0104554,20.3146809 L35.0399811,19.8030338 C34.7076804,20.2108594 34.2720334,20.4036521 33.6812865,20.4036521 C32.9797811,20.4036521 32.4998053,19.8475056 32.4998053,19.0540946 C32.4998053,17.8454169 33.3342229,17.1484033 34.7741524,17.1484033 C34.9218423,17.1484033 35.1064383,17.1632258 35.2984273,17.1854894 C35.3427413,17.0223587 35.3501089,16.9481972 35.3501089,16.8666244 C35.3501089,16.5329476 35.1212266,16.4142993 34.5230844,16.4142993 C34.1538798,16.4142993 33.7329808,16.4662122 33.4449941,16.5551834 L33.2677657,16.6070793 L33.1496291,16.6367413 L33.3268426,15.5244909 C33.9766515,15.3391094 34.3975526,15.2649479 34.8775283,15.2649479 C35.9925651,15.2649479 36.575904,15.7617703 36.575904,16.7109029 C36.575904,16.9556084 36.5611412,17.1409899 36.4725408,17.6897124 L36.1993042,19.4471083 L36.155003,19.7585343 L36.1254667,20.0106533 L36.1033235,20.1811973 L36.0885606,20.3146809 Z M35.1433698,18.1123733 C35.0104554,18.0975358 34.9513807,18.0975358 34.8553852,18.0975358 C34.1243286,18.0975358 33.7477437,18.3496676 33.7477437,18.8464623 C33.7477437,19.150492 33.9323375,19.3507109 34.2129566,19.3507109 C34.744614,19.3507109 35.1212266,18.8464623 35.1433698,18.1123733 Z" id="path58388" stroke="none" fill="#FFFFFF" fill-rule="nonzero"></path>
                                <path d="M39.5591496,15.331696 C39.5222181,15.3242699 39.4779041,15.3242699 39.4262225,15.3242699 C39.0053214,15.3242699 38.7616508,15.5393006 38.3628929,16.1251092 L38.4810316,15.3761678 L37.3069606,15.3761678 L36.5168272,20.3146809 L37.8164599,20.3146809 C38.2742925,17.2966965 38.3998265,16.770227 39.020097,16.770227 C39.057003,16.770227 39.057003,16.770227 39.1087122,16.7776382 C39.226851,16.1844184 39.3819085,15.7469329 39.6034636,15.3465058 L39.5591496,15.331696 Z" id="path58390" stroke="none" fill="#FFFFFF" fill-rule="nonzero"></path>
                            </g>
                        </g>
                    </g>
                </g>
            </g>
        </g>
    </g>
</svg>